<svg width="25" height="24" viewBox="0 0 25 24" fill="none" xmlns="http://www.w3.org/2000/svg">
<path d="M20.5 7.2002H4.5C3.39543 7.2002 2.5 8.09563 2.5 9.2002V19.2002C2.5 20.3048 3.39543 21.2002 4.5 21.2002H20.5C21.6046 21.2002 22.5 20.3048 22.5 19.2002V9.2002C22.5 8.09563 21.6046 7.2002 20.5 7.2002Z" stroke="#262626" stroke-width="1.33" stroke-linecap="round" stroke-linejoin="round"/>
<path d="M16.5 21.2002V5.2002C16.5 4.66976 16.2893 4.16105 15.9142 3.78598C15.5391 3.41091 15.0304 3.2002 14.5 3.2002H10.5C9.96957 3.2002 9.46086 3.41091 9.08579 3.78598C8.71071 4.16105 8.5 4.66976 8.5 5.2002V21.2002" stroke="#262626" stroke-width="1.33" stroke-linecap="round" stroke-linejoin="round"/>
</svg>
