<svg width="25" height="24" viewBox="0 0 25 24" fill="none" xmlns="http://www.w3.org/2000/svg">
<path d="M19.4854 3.25443C17.8333 1.80067 15.5471 1 13.0479 1C9.23019 1 6.88213 2.43453 5.58464 3.63788C3.98557 5.12087 3.0686 7.08999 3.0686 9.04044C3.0686 11.4894 4.18605 13.369 6.05736 14.0683C6.18299 14.1155 6.3094 14.1392 6.43333 14.1392C6.8281 14.1392 7.1409 13.9025 7.24927 13.5226C7.31244 13.3047 7.45881 12.7671 7.52244 12.5338C7.65868 12.0729 7.5486 11.8512 7.25152 11.5303C6.71029 10.9433 6.45825 10.2491 6.45825 9.3457C6.45825 6.66226 8.63803 3.8103 12.678 3.8103C15.8836 3.8103 17.8749 5.48041 17.8749 8.16881C17.8749 9.86531 17.4763 11.4364 16.7522 12.593C16.2491 13.3965 15.3643 14.3544 14.006 14.3544C13.4187 14.3544 12.8911 14.1333 12.5581 13.7477C12.2436 13.3832 12.14 12.9123 12.2665 12.4216C12.4094 11.8671 12.6042 11.2888 12.7928 10.7296C13.1367 9.70843 13.4618 8.74391 13.4618 7.97439C13.4618 6.65815 12.579 5.77374 11.2654 5.77374C9.59586 5.77374 8.28792 7.32812 8.28792 9.31242C8.28792 10.2856 8.57007 11.0135 8.69779 11.293C8.48747 12.1098 7.23751 16.9661 7.00041 17.8819C6.86332 18.4165 6.03747 22.6388 7.4044 22.9755C8.94023 23.3537 10.313 19.2415 10.4528 18.7768C10.566 18.3989 10.9622 16.9699 11.2051 16.0915C11.9465 16.7461 13.1402 17.1887 14.3018 17.1887C16.4916 17.1887 18.4609 16.2854 19.847 14.6454C21.1913 13.0547 21.9317 10.8376 21.9317 8.40275C21.9317 6.49927 21.04 4.62276 19.4854 3.25443Z" fill="#096DD9"/>
</svg>
