<svg width="32" height="33" viewBox="0 0 32 33" fill="none" xmlns="http://www.w3.org/2000/svg">
<path d="M13.3072 7.50391C13.5164 8.75881 13.4467 9.94399 13.1678 11.1292C13.6558 10.8503 14.1438 10.5017 14.7016 10.432C14.7016 11.408 14.4924 12.1749 13.7255 13.0812C14.0741 13.151 14.4924 13.0812 14.9107 13.151C14.7016 14.2664 14.5621 15.3819 14.353 16.5671C16.1656 16.5671 17.9783 16.5671 19.7909 16.5671C19.7212 17.0551 19.6515 17.4734 19.512 17.9614C17.6994 17.9614 15.8868 17.9614 14.0741 17.9614C12.2615 17.9614 10.4488 17.9614 8.63621 17.9614C8.49678 18.1009 8.5665 18.31 8.5665 18.4494C8.5665 20.5409 8.5665 22.7022 8.5665 24.7937C8.5665 24.9331 8.63621 25.0725 8.49678 25.212C8.07848 25.212 7.66018 25.212 7.17216 25.212C7.10244 24.9331 7.10244 17.0551 7.17216 16.5671C8.07848 16.5671 9.05451 16.5671 10.0305 16.5671C9.8214 15.3819 9.68196 14.2664 9.47281 13.151C9.89112 13.0115 10.3094 13.151 10.7277 13.0812C9.47281 11.408 9.33338 9.59541 9.54253 7.64334C9.68196 7.57362 9.75168 7.71306 9.75168 7.78277C10.4488 8.54966 10.9369 9.38626 11.2157 10.432C11.2855 10.5714 11.2854 10.7109 11.3552 10.8503C11.3552 10.8503 11.3552 10.8503 11.4249 10.92C11.634 10.2926 11.7735 9.66513 12.1221 9.10739C12.4706 8.41022 12.8192 7.92221 13.3072 7.50391Z" fill="#1890FF"/>
<path d="M24.88 25.1419C24.392 25.1419 23.9737 25.1419 23.4857 25.1419C23.4857 22.7018 23.4857 20.3315 23.4857 17.8914C23.0674 17.8217 22.7188 17.8914 22.3005 17.8217C22.0216 18.9371 21.8822 20.1223 21.6033 21.2378C20.4879 21.3075 19.4421 21.2378 18.3266 21.2378C18.2569 21.5166 18.2569 23.1898 18.3266 23.6779C19.0238 23.6779 19.6513 23.6779 20.3484 23.6779C20.3484 24.1659 20.3484 24.5842 20.3484 25.0025C20.0696 25.0722 15.7471 25.1419 14.8408 25.0722C14.8408 24.6539 14.8408 24.1659 14.8408 23.6779C15.4683 23.6779 16.1654 23.6779 16.7929 23.6779C16.8626 23.3293 16.8626 21.6561 16.7929 21.2378C15.8168 21.2378 14.7711 21.2378 13.7253 21.2378C13.7253 20.7498 13.7253 20.3315 13.7253 19.8434C15.9563 19.8434 18.1872 19.8434 20.4182 19.8434C20.9759 17.0548 21.4639 14.2661 22.0216 11.4077C22.5097 11.4774 22.928 11.5471 23.3463 11.6866C23.2765 12.4535 23.0674 13.2204 22.928 13.9872C22.7885 14.7541 22.6491 15.521 22.5097 16.3576C23.2765 16.3576 24.0434 16.3576 24.8103 16.3576C24.88 19.4251 24.88 22.2835 24.88 25.1419Z" fill="#1890FF"/>
</svg>
