<svg width="16" height="16" viewBox="0 0 16 16" fill="none" xmlns="http://www.w3.org/2000/svg">
<path d="M15.3335 7.66663C15.3335 11.5326 12.1995 14.6666 8.3335 14.6666C6.79761 14.6666 5.37725 14.172 4.22304 13.3333L1.66683 14.3333L2.74823 11.8869C1.86025 10.7135 1.3335 9.25157 1.3335 7.66663C1.3335 3.80063 4.4675 0.666626 8.3335 0.666626C12.1995 0.666626 15.3335 3.80063 15.3335 7.66663Z" stroke="#4AC959"/>
<path d="M12.0944 9.12707C12.2864 9.22307 12.4148 9.27107 12.4638 9.34985C12.5123 9.42968 12.5123 9.81315 12.3516 10.2608C12.192 10.7064 11.4063 11.1357 11.0525 11.1681C10.6998 11.2004 10.6998 11.4556 8.74176 10.6912C6.78474 9.92637 5.54928 7.93387 5.45223 7.80709L5.45171 7.80639C5.35324 7.67652 4.6665 6.7708 4.6665 5.83128C4.6665 4.89112 5.16424 4.42939 5.34006 4.23791C5.51589 4.04643 5.72458 4 5.85293 4C5.98127 4 6.10962 4.01565 6.22179 4.01565C6.33449 4.01565 6.49466 3.95252 6.65483 4.33443C6.81605 4.71686 7.20056 5.65598 7.24856 5.75198C7.29604 5.8485 7.32787 5.95963 7.26474 6.08746C7.20056 6.21528 7.16874 6.29406 7.07222 6.40519C6.9757 6.51736 6.86926 6.65458 6.78318 6.74067C6.6877 6.83562 6.58596 6.93892 6.69918 7.12988C6.81083 7.32135 7.19743 7.94587 7.76977 8.45299C8.50542 9.1036 9.12628 9.30394 9.3188 9.40098C9.51132 9.49542 9.62349 9.47924 9.73567 9.35142C9.84888 9.22307 10.2183 8.79316 10.3451 8.60169C10.4734 8.41021 10.6017 8.44256 10.7791 8.50673C10.955 8.56934 11.9029 9.03108 12.0944 9.12707Z" fill="#4AC959"/>
</svg>
