<svg width="54" height="54" viewBox="0 0 54 54" fill="none" xmlns="http://www.w3.org/2000/svg">
<g filter="url(#filter0_d)">
<path d="M40.1398 23.0349C40.1398 31.3769 33.3773 38.1394 25.0352 38.1394C16.6932 38.1394 9.93066 31.3769 9.93066 23.0349C9.93066 14.6928 16.6932 7.9303 25.0352 7.9303C33.3773 7.9303 40.1398 14.6928 40.1398 23.0349Z" fill="black" stroke="white" stroke-width="2"/>
<path d="M31.5886 12.9259H18.4121V33.0741H21.9677V29.7974H27.8936V33.0741H31.6583L31.5886 12.9259ZM22.2465 28.4727H19.9459V26.1721H22.2465V28.4727ZM22.2465 24.5686H19.9459V22.268H22.2465V24.5686ZM22.2465 20.6645H19.9459V18.3638H22.2465V20.6645ZM22.2465 16.7603H19.9459V14.4597H22.2465V16.7603ZM26.1507 28.4727H23.85V26.1721H26.1507V28.4727ZM26.1507 24.5686H23.85V22.268H26.1507V24.5686ZM26.1507 20.6645H23.85V18.3638H26.1507V20.6645ZM26.1507 16.7603H23.85V14.4597H26.1507V16.7603ZM30.0548 28.4727H27.7542V26.1721H30.0548V28.4727ZM30.0548 24.5686H27.7542V22.268H30.0548V24.5686ZM30.0548 20.6645H27.7542V18.3638H30.0548V20.6645ZM30.0548 16.7603H27.7542V14.4597H30.0548V16.7603Z" fill="white"/>
</g>
<defs>
<filter id="filter0_d" x="0" y="0" width="54" height="54" filterUnits="userSpaceOnUse" color-interpolation-filters="sRGB">
<feFlood flood-opacity="0" result="BackgroundImageFix"/>
<feColorMatrix in="SourceAlpha" type="matrix" values="0 0 0 0 0 0 0 0 0 0 0 0 0 0 0 0 0 0 127 0"/>
<feOffset dx="2" dy="4"/>
<feGaussianBlur stdDeviation="5"/>
<feColorMatrix type="matrix" values="0 0 0 0 0 0 0 0 0 0 0 0 0 0 0 0 0 0 0.26 0"/>
<feBlend mode="normal" in2="BackgroundImageFix" result="effect1_dropShadow"/>
<feBlend mode="normal" in="SourceGraphic" in2="effect1_dropShadow" result="shape"/>
</filter>
</defs>
</svg>
