<svg width="54" height="54" viewBox="0 0 54 54" fill="none" xmlns="http://www.w3.org/2000/svg">
<g filter="url(#filter0_d)">
<path d="M40.1398 23.0349C40.1398 31.3769 33.3773 38.1394 25.0352 38.1394C16.6932 38.1394 9.93066 31.3769 9.93066 23.0349C9.93066 14.6928 16.6932 7.9303 25.0352 7.9303C33.3773 7.9303 40.1398 14.6928 40.1398 23.0349Z" fill="black" stroke="white" stroke-width="2"/>
<path d="M25.1053 12.9259L18.3428 29.0305H23.3624V33.1438H24.5476V24.7778L22.7349 23.3137L23.2229 22.6863L24.5476 23.8017V21.6405H25.5236V26.3115L27.1271 24.1503L27.7545 24.6383L25.5236 27.6361V33.1438H26.6391V29.0305H31.7284L25.1053 12.9259Z" fill="white"/>
</g>
<defs>
<filter id="filter0_d" x="0" y="0" width="54" height="54" filterUnits="userSpaceOnUse" color-interpolation-filters="sRGB">
<feFlood flood-opacity="0" result="BackgroundImageFix"/>
<feColorMatrix in="SourceAlpha" type="matrix" values="0 0 0 0 0 0 0 0 0 0 0 0 0 0 0 0 0 0 127 0"/>
<feOffset dx="2" dy="4"/>
<feGaussianBlur stdDeviation="5"/>
<feColorMatrix type="matrix" values="0 0 0 0 0 0 0 0 0 0 0 0 0 0 0 0 0 0 0.26 0"/>
<feBlend mode="normal" in2="BackgroundImageFix" result="effect1_dropShadow"/>
<feBlend mode="normal" in="SourceGraphic" in2="effect1_dropShadow" result="shape"/>
</filter>
</defs>
</svg>
