<svg width="24" height="24" viewBox="0 0 24 24" fill="none" xmlns="http://www.w3.org/2000/svg">
<path fill-rule="evenodd" clip-rule="evenodd" d="M12 23C12 23 21 17 21 10C21 7.61305 20.0518 5.32387 18.364 3.63604C16.6761 1.94821 14.3869 1 12 1C9.61305 1 7.32387 1.94821 5.63604 3.63604C3.94821 5.32387 3 7.61305 3 10C3 17 12 23 12 23ZM15 10C15 11.6569 13.6569 13 12 13C10.3431 13 9 11.6569 9 10C9 8.34315 10.3431 7 12 7C13.6569 7 15 8.34315 15 10Z" fill="#E6F7FF"/>
<path d="M12 23L11.6311 23.5533C11.8545 23.7022 12.1455 23.7022 12.3689 23.5533L12 23ZM18.364 3.63604L17.8937 4.10626L18.364 3.63604ZM5.63604 3.63604L6.10626 4.10626L5.63604 3.63604ZM20.335 10C20.335 13.2327 18.2408 16.3206 16.0172 18.6677C14.9191 19.8268 13.8186 20.7747 12.992 21.4329C12.5792 21.7616 12.236 22.017 11.9974 22.1894C11.8781 22.2756 11.785 22.3409 11.7224 22.3842C11.6912 22.4059 11.6676 22.422 11.6522 22.4325C11.6445 22.4377 11.6388 22.4415 11.6353 22.4439C11.6335 22.4451 11.6323 22.4459 11.6316 22.4464C11.6312 22.4466 11.631 22.4467 11.631 22.4468C11.6309 22.4468 11.631 22.4468 11.6309 22.4468C11.631 22.4468 11.6311 22.4467 12 23C12.3689 23.5533 12.3691 23.5532 12.3693 23.5531C12.3694 23.553 12.3696 23.5528 12.3699 23.5527C12.3703 23.5523 12.3709 23.5519 12.3717 23.5514C12.3732 23.5504 12.3752 23.5491 12.3778 23.5474C12.3829 23.5439 12.3901 23.539 12.3995 23.5327C12.4181 23.52 12.445 23.5016 12.4797 23.4776C12.549 23.4296 12.6493 23.3592 12.7761 23.2676C13.0296 23.0845 13.3895 22.8165 13.8205 22.4733C14.6814 21.7878 15.8309 20.7982 16.9828 19.5823C19.2592 17.1794 21.665 13.7673 21.665 10H20.335ZM17.8937 4.10626C19.4569 5.66938 20.335 7.78942 20.335 10H21.665C21.665 7.43668 20.6467 4.97835 18.8342 3.16581L17.8937 4.10626ZM12 1.665C14.2106 1.665 16.3306 2.54315 17.8937 4.10626L18.8342 3.16581C17.0216 1.35327 14.5633 0.335 12 0.335V1.665ZM6.10626 4.10626C7.66938 2.54315 9.78942 1.665 12 1.665V0.335C9.43668 0.335 6.97835 1.35327 5.16581 3.16581L6.10626 4.10626ZM3.665 10C3.665 7.78942 4.54315 5.66938 6.10626 4.10626L5.16581 3.16581C3.35327 4.97835 2.335 7.43668 2.335 10H3.665ZM12 23C12.3689 22.4467 12.369 22.4468 12.3691 22.4468C12.369 22.4468 12.3691 22.4468 12.369 22.4468C12.369 22.4467 12.3688 22.4466 12.3684 22.4464C12.3677 22.4459 12.3665 22.4451 12.3647 22.4439C12.3612 22.4415 12.3555 22.4377 12.3478 22.4325C12.3324 22.422 12.3088 22.4059 12.2776 22.3842C12.215 22.3409 12.1219 22.2756 12.0026 22.1894C11.764 22.017 11.4208 21.7616 11.008 21.4329C10.1814 20.7747 9.08093 19.8268 7.98276 18.6677C5.75922 16.3206 3.665 13.2327 3.665 10H2.335C2.335 13.7673 4.74078 17.1794 7.01724 19.5823C8.16907 20.7982 9.31864 21.7878 10.1795 22.4733C10.6105 22.8165 10.9704 23.0845 11.2239 23.2676C11.3507 23.3592 11.451 23.4296 11.5203 23.4776C11.555 23.5016 11.5819 23.52 11.6005 23.5327C11.6099 23.539 11.6171 23.5439 11.6222 23.5474C11.6248 23.5491 11.6268 23.5504 11.6283 23.5514C11.6291 23.5519 11.6297 23.5523 11.6301 23.5527C11.6304 23.5528 11.6306 23.553 11.6307 23.5531C11.6309 23.5532 11.6311 23.5533 12 23ZM12 13.665C14.0241 13.665 15.665 12.0241 15.665 10H14.335C14.335 11.2896 13.2896 12.335 12 12.335V13.665ZM8.335 10C8.335 12.0241 9.97588 13.665 12 13.665V12.335C10.7104 12.335 9.665 11.2896 9.665 10H8.335ZM12 6.335C9.97588 6.335 8.335 7.97588 8.335 10H9.665C9.665 8.71042 10.7104 7.665 12 7.665V6.335ZM15.665 10C15.665 7.97588 14.0241 6.335 12 6.335V7.665C13.2896 7.665 14.335 8.71042 14.335 10H15.665Z" fill="#096DD9"/>
</svg>
