<svg width="56" height="56" viewBox="0 0 56 56" fill="none" xmlns="http://www.w3.org/2000/svg">
<path d="M0 28C0 12.536 12.536 0 28 0C43.464 0 56 12.536 56 28C56 43.464 43.464 56 28 56C12.536 56 0 43.464 0 28Z" fill="#FFF0F6"/>
<path d="M40 26.0997C40 25.2238 39.4261 24.4537 38.3843 23.9315C37.718 23.5975 36.8894 23.3837 36.0012 23.3107L28.006 16L16 26.9781L17.2631 28.3658L18.3546 27.3677V37.1823C18.3546 38.7359 19.6156 40 21.1656 40H27.8185C28.9624 40 30.0524 39.7693 30.8879 39.3507C31.1428 39.2229 31.3693 39.0803 31.5667 38.9249C31.7639 39.0803 31.9906 39.2229 32.2455 39.3507C33.081 39.7693 34.171 40 35.3149 40C36.4586 40 37.5488 39.7693 38.3843 39.3507C39.4261 38.8284 40 38.0585 40 37.1823V26.2407H39.9947C39.998 26.1941 40 26.1471 40 26.0997ZM38.1259 26.0997C38.1259 26.1322 38.0252 26.3479 37.546 26.5879C36.9742 26.8746 36.161 27.039 35.3149 27.039C34.4688 27.039 33.6556 26.8746 33.0836 26.5879C32.6046 26.3479 32.5037 26.1324 32.5037 26.0997C32.5037 26.0673 32.6046 25.8516 33.0836 25.6116C33.6556 25.3249 34.4688 25.1606 35.3149 25.1606C36.161 25.1606 36.9742 25.3249 37.546 25.6116C38.0252 25.8516 38.1259 26.0673 38.1259 26.0997ZM20.2286 37.1823V25.6541L28.006 18.5426L33.4316 23.5037C33.0008 23.6104 32.6 23.7539 32.2455 23.9315C31.2036 24.4537 30.6298 25.2238 30.6298 26.0997C30.6298 26.1471 30.6318 26.1939 30.6351 26.2407H30.6298V31.2048C29.8283 30.8493 28.8434 30.6549 27.8185 30.6549C26.6749 30.6549 25.5847 30.8854 24.7491 31.3042C23.7073 31.8264 23.1334 32.5965 23.1334 33.4724C23.1334 33.4882 23.134 33.5038 23.1345 33.5194H23.1334V37.1823C23.1334 37.513 23.2153 37.8287 23.3733 38.1214H21.1656C20.6489 38.1216 20.2286 37.7002 20.2286 37.1823ZM30.6296 33.5194C30.6296 33.5481 30.5248 33.7542 30.0616 33.9784C29.4925 34.2537 28.6749 34.4117 27.8185 34.4117C26.9724 34.4117 26.1592 34.2473 25.5872 33.9606C25.1082 33.7206 25.0075 33.5051 25.0075 33.4724C25.0075 33.44 25.1082 33.2243 25.5872 32.9843C26.1592 32.6976 26.9724 32.5333 27.8185 32.5333C28.6548 32.5333 29.4639 32.7042 30.0383 33.0019C30.4895 33.2359 30.6296 33.4631 30.6296 33.5194ZM30.0499 37.6705C29.4778 37.9571 28.6647 38.1214 27.8185 38.1214C26.9724 38.1214 26.1592 37.9571 25.5872 37.6705C25.1082 37.4304 25.0075 37.2148 25.0075 37.1823V35.7599C25.8035 36.1026 26.7889 36.29 27.8185 36.29C28.8994 36.29 29.8622 36.1052 30.6296 35.7814V37.1823C30.6296 37.2148 30.5289 37.4304 30.0499 37.6705ZM37.546 37.6705C36.9742 37.9571 36.161 38.1214 35.3149 38.1214C34.4688 38.1214 33.6556 37.9571 33.0836 37.6705C32.6046 37.4304 32.5037 37.2148 32.5037 37.1823V35.7599C33.2998 36.1026 34.2853 36.29 35.3149 36.29C36.3445 36.29 37.33 36.1026 38.1259 35.7599V37.1823C38.1259 37.2148 38.0252 37.4304 37.546 37.6705ZM37.546 33.9606C36.9742 34.2473 36.161 34.4116 35.3149 34.4116C34.4688 34.4116 33.6556 34.2473 33.0836 33.9606C32.6046 33.7206 32.5037 33.5049 32.5037 33.4724V32.1441C33.2998 32.4867 34.2853 32.6741 35.3149 32.6741C36.3445 32.6741 37.33 32.4867 38.1259 32.1441V33.4724C38.1259 33.5049 38.0252 33.7206 37.546 33.9606ZM37.546 30.3448C36.9742 30.6314 36.161 30.7957 35.3149 30.7957C34.4688 30.7957 33.6556 30.6314 33.0836 30.3448C32.6046 30.1047 32.5037 29.8891 32.5037 29.8566V28.3872C33.2998 28.7299 34.2853 28.9173 35.3149 28.9173C36.3445 28.9173 37.33 28.7299 38.1259 28.3872V29.8566C38.1259 29.8891 38.0252 30.1047 37.546 30.3448Z" fill="#EB2F96"/>
</svg>
