<svg width="54" height="54" viewBox="0 0 54 54" fill="none" xmlns="http://www.w3.org/2000/svg">
<g filter="url(#filter0_d)">
<path d="M40.1398 23.0349C40.1398 31.3769 33.3773 38.1394 25.0352 38.1394C16.6932 38.1394 9.93066 31.3769 9.93066 23.0349C9.93066 14.6928 16.6932 7.9303 25.0352 7.9303C33.3773 7.9303 40.1398 14.6928 40.1398 23.0349Z" fill="#EB2F96" stroke="white" stroke-width="2"/>
<path d="M34.3769 19.7581C33.4705 18.2244 32.6339 16.6906 31.7973 15.1568C31.5882 14.8083 31.3093 14.6688 30.9607 14.6688C30.2636 14.6688 29.5664 14.6688 28.8692 14.6688C25.6623 14.6688 22.3856 14.6688 19.1786 14.6688C18.6906 14.6688 18.4814 14.8083 18.2723 15.2266C17.4357 16.6906 16.5991 18.2244 15.7625 19.6884C15.6231 19.8976 15.5533 20.1067 15.6231 20.3856C15.6928 21.0131 15.9019 21.6405 16.4597 22.0588C16.6688 22.268 16.9477 22.4771 17.2963 22.6165C17.2963 22.8257 17.2963 22.9651 17.2963 23.1046C17.2963 25.5446 17.2963 27.9847 17.2963 30.4248C17.2963 31.1917 17.366 31.2614 18.1329 31.2614C18.6209 31.2614 19.1089 31.2614 19.5969 31.2614V23.8714H23.9193V31.3311C26.708 31.3311 29.427 31.3311 32.2156 31.3311C32.2854 31.3311 32.3551 31.3311 32.4945 31.3311C32.9128 31.3311 33.122 31.122 33.122 30.7037C33.122 30.634 33.122 30.4945 33.122 30.4248C33.122 27.9847 33.122 25.5446 33.122 23.1046C33.122 22.9651 33.122 22.8257 33.1917 22.6165C33.2614 22.6165 33.3311 22.5468 33.4008 22.4771C34.1677 22.0588 34.586 21.3616 34.7255 20.525C34.586 20.3159 34.5163 20.037 34.3769 19.7581ZM19.0392 15.6449C23.013 15.6449 26.9869 15.6449 30.9607 15.6449C31.6579 16.8998 32.4248 18.2244 33.1917 19.4793C27.7538 19.4793 22.3159 19.4793 16.878 19.4793C17.5751 18.2244 18.342 16.9695 19.0392 15.6449ZM29.0087 20.4553C28.939 21.1525 28.3115 21.7799 27.4749 21.9194C26.708 21.9891 25.732 21.5011 25.5228 20.4553C26.708 20.4553 27.8235 20.4553 29.0087 20.4553ZM18.342 21.9194C17.4357 21.9891 16.5991 21.2919 16.5294 20.4553C17.7146 20.4553 18.83 20.4553 20.0152 20.4553C19.8061 21.2919 19.1786 21.9194 18.342 21.9194ZM22.8039 21.9194C22.1764 21.9194 21.2701 21.5708 21.061 20.525C21.3398 20.4553 24.0588 20.3856 24.5468 20.525C24.3376 21.3616 23.6405 21.9194 22.8039 21.9194ZM30.1939 28.4727H25.5228V23.8714H30.1939V28.4727ZM31.8671 21.9194C31.0305 21.9194 30.3333 21.3616 30.0544 20.4553C31.2396 20.4553 32.4248 20.4553 33.5403 20.4553C33.4705 21.2222 32.7037 21.9194 31.8671 21.9194Z" fill="white"/>
</g>
<defs>
<filter id="filter0_d" x="0" y="0" width="54" height="54" filterUnits="userSpaceOnUse" color-interpolation-filters="sRGB">
<feFlood flood-opacity="0" result="BackgroundImageFix"/>
<feColorMatrix in="SourceAlpha" type="matrix" values="0 0 0 0 0 0 0 0 0 0 0 0 0 0 0 0 0 0 127 0"/>
<feOffset dx="2" dy="4"/>
<feGaussianBlur stdDeviation="5"/>
<feColorMatrix type="matrix" values="0 0 0 0 0 0 0 0 0 0 0 0 0 0 0 0 0 0 0.26 0"/>
<feBlend mode="normal" in2="BackgroundImageFix" result="effect1_dropShadow"/>
<feBlend mode="normal" in="SourceGraphic" in2="effect1_dropShadow" result="shape"/>
</filter>
</defs>
</svg>
