<svg width="57" height="56" viewBox="0 0 57 56" fill="none" xmlns="http://www.w3.org/2000/svg">
<path d="M0.333313 28C0.333313 12.536 12.8693 0 28.3333 0C43.7973 0 56.3333 12.536 56.3333 28C56.3333 43.464 43.7973 56 28.3333 56C12.8693 56 0.333313 43.464 0.333313 28Z" fill="#E6F7FF"/>
<path d="M40.3333 26.0997C40.3333 25.2238 39.7595 24.4537 38.7176 23.9315C38.0513 23.5975 37.2227 23.3837 36.3345 23.3107L28.3394 16L16.3333 26.9781L17.5964 28.3658L18.6879 27.3677V37.1823C18.6879 38.7359 19.9489 40 21.4989 40H28.1519C29.2957 40 30.3857 39.7693 31.2213 39.3507C31.4761 39.2229 31.7026 39.0803 31.9 38.9249C32.0972 39.0803 32.3239 39.2229 32.5788 39.3507C33.4143 39.7693 34.5043 40 35.6482 40C36.7919 40 37.8821 39.7693 38.7176 39.3507C39.7595 38.8284 40.3333 38.0585 40.3333 37.1823V26.2407H40.328C40.3313 26.1941 40.3333 26.1471 40.3333 26.0997ZM38.4592 26.0997C38.4592 26.1322 38.3585 26.3479 37.8793 26.5879C37.3075 26.8746 36.4943 27.039 35.6482 27.039C34.8021 27.039 33.9889 26.8746 33.4169 26.5879C32.9379 26.3479 32.837 26.1324 32.837 26.0997C32.837 26.0673 32.9379 25.8516 33.4169 25.6116C33.9889 25.3249 34.8021 25.1606 35.6482 25.1606C36.4943 25.1606 37.3075 25.3249 37.8793 25.6116C38.3585 25.8516 38.4592 26.0673 38.4592 26.0997ZM20.562 37.1823V25.6541L28.3394 18.5426L33.765 23.5037C33.3341 23.6104 32.9333 23.7539 32.5788 23.9315C31.5369 24.4537 30.9631 25.2238 30.9631 26.0997C30.9631 26.1471 30.9651 26.1939 30.9684 26.2407H30.9631V31.2048C30.1616 30.8493 29.1767 30.6549 28.1519 30.6549C27.0082 30.6549 25.918 30.8854 25.0825 31.3042C24.0406 31.8264 23.4667 32.5965 23.4667 33.4724C23.4667 33.4882 23.4673 33.5038 23.4678 33.5194H23.4667V37.1823C23.4667 37.513 23.5486 37.8287 23.7066 38.1214H21.4989C20.9822 38.1216 20.562 37.7002 20.562 37.1823ZM30.9629 33.5194C30.9629 33.5481 30.8582 33.7542 30.3949 33.9784C29.8258 34.2537 29.0082 34.4117 28.1519 34.4117C27.3057 34.4117 26.4926 34.2473 25.9205 33.9606C25.4415 33.7206 25.3408 33.5051 25.3408 33.4724C25.3408 33.44 25.4415 33.2243 25.9205 32.9843C26.4926 32.6976 27.3057 32.5333 28.1519 32.5333C28.9881 32.5333 29.7972 32.7042 30.3716 33.0019C30.8228 33.2359 30.9629 33.4631 30.9629 33.5194ZM30.3832 37.6705C29.8112 37.9571 28.998 38.1214 28.1519 38.1214C27.3057 38.1214 26.4926 37.9571 25.9205 37.6705C25.4415 37.4304 25.3408 37.2148 25.3408 37.1823V35.7599C26.1368 36.1026 27.1223 36.29 28.1519 36.29C29.2327 36.29 30.1955 36.1052 30.9629 35.7814V37.1823C30.9629 37.2148 30.8622 37.4304 30.3832 37.6705ZM37.8793 37.6705C37.3075 37.9571 36.4943 38.1214 35.6482 38.1214C34.8021 38.1214 33.9889 37.9571 33.4169 37.6705C32.9379 37.4304 32.837 37.2148 32.837 37.1823V35.7599C33.6331 36.1026 34.6186 36.29 35.6482 36.29C36.6778 36.29 37.6633 36.1026 38.4592 35.7599V37.1823C38.4592 37.2148 38.3585 37.4304 37.8793 37.6705ZM37.8793 33.9606C37.3075 34.2473 36.4943 34.4116 35.6482 34.4116C34.8021 34.4116 33.9889 34.2473 33.4169 33.9606C32.9379 33.7206 32.837 33.5049 32.837 33.4724V32.1441C33.6331 32.4867 34.6186 32.6741 35.6482 32.6741C36.6778 32.6741 37.6633 32.4867 38.4592 32.1441V33.4724C38.4592 33.5049 38.3585 33.7206 37.8793 33.9606ZM37.8793 30.3448C37.3075 30.6314 36.4943 30.7957 35.6482 30.7957C34.8021 30.7957 33.9889 30.6314 33.4169 30.3448C32.9379 30.1047 32.837 29.8891 32.837 29.8566V28.3872C33.6331 28.7299 34.6186 28.9173 35.6482 28.9173C36.6778 28.9173 37.6633 28.7299 38.4592 28.3872V29.8566C38.4592 29.8891 38.3585 30.1047 37.8793 30.3448Z" fill="#096DD9"/>
</svg>
