<svg width="32" height="32" viewBox="0 0 32 32" fill="none" xmlns="http://www.w3.org/2000/svg">
<path d="M29.3334 14.7732V15.9999C29.3318 18.8751 28.4008 21.6728 26.6792 23.9757C24.9576 26.2785 22.5378 27.9632 19.7806 28.7784C17.0233 29.5937 14.0764 29.4958 11.3794 28.4993C8.68232 27.5029 6.37962 25.6614 4.8147 23.2493C3.24977 20.8373 2.50647 17.984 2.69565 15.115C2.88483 12.246 3.99636 9.515 5.86445 7.32933C7.73255 5.14366 10.2571 3.62041 13.0617 2.98676C15.8662 2.35311 18.8004 2.64302 21.4268 3.81323" stroke="#595959" stroke-width="1.73333" stroke-linecap="round" stroke-linejoin="round"/>
<path d="M29.3333 5.33325L16 18.6799L12 14.6799" stroke="#595959" stroke-width="1.73333" stroke-linecap="round" stroke-linejoin="round"/>
</svg>
